Date,Energy (kWh),Reactive energy (kVArh),Power (kW),Maximeter (kW),Reactive power (kVAr),Voltage (V),Intensity (A),Power factor (φ)
1 Aug 2019 00:00:00,1.211,0.200,5.156,5.306,-8.382,121.955,53.003,0.857
1 Aug 2019 00:15:00,1.299,0.300,5.297,6.215,-8.295,121.135,57.352,0.047
1 Aug 2019 00:30:00,1.600,0.791,7.283,8.732,-5.335,122.015,66.358,0.868
1 Aug 2019 00:45:00,1.590,0.800,6.398,6.504,-5.422,120.845,60.979,0.060
